module gitlab.com/realtime-asset-monitor/autofix

go 1.22

require (
	cloud.google.com/go/bigquery v1.61.0
	cloud.google.com/go/profiler v0.4.1
	cloud.google.com/go/pubsub v1.40.0
	github.com/GoogleCloudPlatform/functions-framework-go v1.8.1
	github.com/google/uuid v1.6.0
	github.com/kelseyhightower/envconfig v1.4.0
	gitlab.com/realtime-asset-monitor/utilities v0.0.26
)

require (
	cloud.google.com/go v0.115.0 // indirect
	cloud.google.com/go/auth v0.6.1 // indirect
	cloud.google.com/go/auth/oauth2adapt v0.2.2 // indirect
	cloud.google.com/go/compute/metadata v0.4.0 // indirect
	cloud.google.com/go/functions v1.16.4 // indirect
	cloud.google.com/go/iam v1.1.10 // indirect
	github.com/apache/arrow/go/v15 v15.0.2 // indirect
	github.com/cloudevents/sdk-go/v2 v2.15.2 // indirect
	github.com/felixge/httpsnoop v1.0.4 // indirect
	github.com/go-logr/logr v1.4.2 // indirect
	github.com/go-logr/stdr v1.2.2 // indirect
	github.com/goccy/go-json v0.10.3 // indirect
	github.com/golang/groupcache v0.0.0-20210331224755-41bb18bfe9da // indirect
	github.com/golang/protobuf v1.5.4 // indirect
	github.com/google/flatbuffers v24.3.25+incompatible // indirect
	github.com/google/pprof v0.0.0-20240625030939-27f56978b8b0 // indirect
	github.com/google/s2a-go v0.1.7 // indirect
	github.com/googleapis/enterprise-certificate-proxy v0.3.2 // indirect
	github.com/googleapis/gax-go/v2 v2.12.5 // indirect
	github.com/json-iterator/go v1.1.12 // indirect
	github.com/klauspost/compress v1.17.9 // indirect
	github.com/klauspost/cpuid/v2 v2.2.8 // indirect
	github.com/modern-go/concurrent v0.0.0-20180306012644-bacd9c7ef1dd // indirect
	github.com/modern-go/reflect2 v1.0.2 // indirect
	github.com/pierrec/lz4/v4 v4.1.21 // indirect
	github.com/zeebo/xxh3 v1.0.2 // indirect
	go.opencensus.io v0.24.0 // indirect
	go.opentelemetry.io/contrib/instrumentation/google.golang.org/grpc/otelgrpc v0.53.0 // indirect
	go.opentelemetry.io/contrib/instrumentation/net/http/otelhttp v0.53.0 // indirect
	go.opentelemetry.io/otel v1.28.0 // indirect
	go.opentelemetry.io/otel/metric v1.28.0 // indirect
	go.opentelemetry.io/otel/trace v1.28.0 // indirect
	go.uber.org/multierr v1.11.0 // indirect
	go.uber.org/zap v1.27.0 // indirect
	golang.org/x/crypto v0.25.0 // indirect
	golang.org/x/exp v0.0.0-20240613232115-7f521ea00fb8 // indirect
	golang.org/x/mod v0.19.0 // indirect
	golang.org/x/net v0.26.0 // indirect
	golang.org/x/oauth2 v0.21.0 // indirect
	golang.org/x/sync v0.7.0 // indirect
	golang.org/x/sys v0.22.0 // indirect
	golang.org/x/text v0.16.0 // indirect
	golang.org/x/time v0.5.0 // indirect
	golang.org/x/tools v0.22.0 // indirect
	golang.org/x/xerrors v0.0.0-20231012003039-104605ab7028 // indirect
	google.golang.org/api v0.187.0 // indirect
	google.golang.org/genproto v0.0.0-20240701130421-f6361c86f094 // indirect
	google.golang.org/genproto/googleapis/api v0.0.0-20240701130421-f6361c86f094 // indirect
	google.golang.org/genproto/googleapis/rpc v0.0.0-20240701130421-f6361c86f094 // indirect
	google.golang.org/grpc v1.65.0 // indirect
	google.golang.org/protobuf v1.34.2 // indirect
)
